<?xml version="1.0" standalone="no"?><!DOCTYPE svg PUBLIC "-//W3C//DTD SVG 1.1//EN" "http://www.w3.org/Graphics/SVG/1.1/DTD/svg11.dtd"><svg version="1.1" width="1200" height="810" onload="init(evt)" viewBox="0 0 1200 810" xmlns="http://www.w3.org/2000/svg" xmlns:xlink="http://www.w3.org/1999/xlink" xmlns:fg="http://github.com/jonhoo/inferno"><!--Flame graph stack visualization. See https://github.com/brendangregg/FlameGraph for latest version, and http://www.brendangregg.com/flamegraphs.html for examples.--><!--NOTES: --><defs><linearGradient id="background" y1="0" y2="1" x1="0" x2="0"><stop stop-color="#eeeeee" offset="5%"/><stop stop-color="#eeeeb0" offset="95%"/></linearGradient></defs><style type="text/css">
text { font-family:"Verdana"; font-size:12px; fill:rgb(0,0,0); }
#title { text-anchor:middle; font-size:17px; }
#search { opacity:0.1; cursor:pointer; }
#search:hover, #search.show { opacity:1; }
#subtitle { text-anchor:middle; font-color:rgb(160,160,160); }
#unzoom { cursor:pointer; }
#frames > *:hover { stroke:black; stroke-width:0.5; cursor:pointer; }
.hide { display:none; }
.parent { opacity:0.5; }
</style><script type="text/ecmascript"><![CDATA[
        var nametype = 'Function:';
        var fontsize = 12;
        var fontwidth = 0.59;
        var xpad = 10;
        var inverted = true;
        var searchcolor = 'rgb(230,0,230)';
        var fluiddrawing = true;
        var truncate_text_right = false;
    ]]><![CDATA["use strict";
var details, searchbtn, unzoombtn, matchedtxt, svg, searching, frames;
function init(evt) {
    details = document.getElementById("details").firstChild;
    searchbtn = document.getElementById("search");
    unzoombtn = document.getElementById("unzoom");
    matchedtxt = document.getElementById("matched");
    svg = document.getElementsByTagName("svg")[0];
    frames = document.getElementById("frames");
    total_samples = parseInt(frames.attributes.total_samples.value);
    searching = 0;

    // Use GET parameters to restore a flamegraph's state.
    var restore_state = function() {
        var params = get_params();
        if (params.x && params.y)
            zoom(find_group(document.querySelector('[*|x="' + params.x + '"][y="' + params.y + '"]')));
        if (params.s)
            search(params.s);
    };

    if (fluiddrawing) {
        // Make width dynamic so the SVG fits its parent's width.
        svg.removeAttribute("width");
        // Edge requires us to have a viewBox that gets updated with size changes.
        var isEdge = /Edge\/\d./i.test(navigator.userAgent);
        if (!isEdge) {
          svg.removeAttribute("viewBox");
        }
        var update_for_width_change = function() {
            if (isEdge) {
                svg.attributes.viewBox.value = "0 0 " + svg.width.baseVal.value + " " + svg.height.baseVal.value;
            }

            // Keep consistent padding on left and right of frames container.
            frames.attributes.width.value = svg.width.baseVal.value - xpad * 2;

            // Text truncation needs to be adjusted for the current width.
            var el = frames.children;
            for(var i = 0; i < el.length; i++) {
                update_text(el[i]);
            }

            // Keep search elements at a fixed distance from right edge.
            var svgWidth = svg.width.baseVal.value;
            searchbtn.attributes.x.value = svgWidth - xpad - 100;
            matchedtxt.attributes.x.value = svgWidth - xpad - 100;
        };
        window.addEventListener('resize', function() {
            update_for_width_change();
        });
        // This needs to be done asynchronously for Safari to work.
        setTimeout(function() {
            unzoom();
            update_for_width_change();
            restore_state();
        }, 0);
    } else {
        restore_state();
    }
}
// event listeners
window.addEventListener("click", function(e) {
    var target = find_group(e.target);
    if (target) {
        if (target.nodeName == "a") {
            if (e.ctrlKey === false) return;
            e.preventDefault();
        }
        if (target.classList.contains("parent")) unzoom();
        zoom(target);

        // set parameters for zoom state
        var el = target.querySelector("rect");
        if (el && el.attributes && el.attributes.y && el.attributes["fg:x"]) {
            var params = get_params()
            params.x = el.attributes["fg:x"].value;
            params.y = el.attributes.y.value;
            history.replaceState(null, null, parse_params(params));
        }
    }
    else if (e.target.id == "unzoom") {
        unzoom();

        // remove zoom state
        var params = get_params();
        if (params.x) delete params.x;
        if (params.y) delete params.y;
        history.replaceState(null, null, parse_params(params));
    }
    else if (e.target.id == "search") search_prompt();
}, false)
// mouse-over for info
// show
window.addEventListener("mouseover", function(e) {
    var target = find_group(e.target);
    if (target) details.nodeValue = nametype + " " + g_to_text(target);
}, false)
// clear
window.addEventListener("mouseout", function(e) {
    var target = find_group(e.target);
    if (target) details.nodeValue = ' ';
}, false)
// ctrl-F for search
window.addEventListener("keydown",function (e) {
    if (e.keyCode === 114 || (e.ctrlKey && e.keyCode === 70)) {
        e.preventDefault();
        search_prompt();
    }
}, false)
// functions
function get_params() {
    var params = {};
    var paramsarr = window.location.search.substr(1).split('&');
    for (var i = 0; i < paramsarr.length; ++i) {
        var tmp = paramsarr[i].split("=");
        if (!tmp[0] || !tmp[1]) continue;
        params[tmp[0]]  = decodeURIComponent(tmp[1]);
    }
    return params;
}
function parse_params(params) {
    var uri = "?";
    for (var key in params) {
        uri += key + '=' + encodeURIComponent(params[key]) + '&';
    }
    if (uri.slice(-1) == "&")
        uri = uri.substring(0, uri.length - 1);
    if (uri == '?')
        uri = window.location.href.split('?')[0];
    return uri;
}
function find_child(node, selector) {
    var children = node.querySelectorAll(selector);
    if (children.length) return children[0];
    return;
}
function find_group(node) {
    var parent = node.parentElement;
    if (!parent) return;
    if (parent.id == "frames") return node;
    return find_group(parent);
}
function orig_save(e, attr, val) {
    if (e.attributes["fg:orig_" + attr] != undefined) return;
    if (e.attributes[attr] == undefined) return;
    if (val == undefined) val = e.attributes[attr].value;
    e.setAttribute("fg:orig_" + attr, val);
}
function orig_load(e, attr) {
    if (e.attributes["fg:orig_"+attr] == undefined) return;
    e.attributes[attr].value = e.attributes["fg:orig_" + attr].value;
    e.removeAttribute("fg:orig_" + attr);
}
function g_to_text(e) {
    var text = find_child(e, "title").firstChild.nodeValue;
    return (text)
}
function g_to_func(e) {
    var func = g_to_text(e);
    // if there's any manipulation we want to do to the function
    // name before it's searched, do it here before returning.
    return (func);
}
function update_text(e) {
    var r = find_child(e, "rect");
    var t = find_child(e, "text");
    var w = parseFloat(r.attributes.width.value) * frames.attributes.width.value / 100 - 3;
    var txt = find_child(e, "title").textContent.replace(/\([^(]*\)$/,"");
    t.attributes.x.value = format_percent((parseFloat(r.attributes.x.value) + (100 * 3 / frames.attributes.width.value)));
    // Smaller than this size won't fit anything
    if (w < 2 * fontsize * fontwidth) {
        t.textContent = "";
        return;
    }
    t.textContent = txt;
    // Fit in full text width
    if (/^ *\$/.test(txt) || t.getComputedTextLength() < w)
        return;
    if (truncate_text_right) {
        // Truncate the right side of the text.
        for (var x = txt.length - 2; x > 0; x--) {
            if (t.getSubStringLength(0, x + 2) <= w) {
                t.textContent = txt.substring(0, x) + "..";
                return;
            }
        }
    } else {
        // Truncate the left side of the text.
        for (var x = 2; x < txt.length; x++) {
            if (t.getSubStringLength(x - 2, txt.length) <= w) {
                t.textContent = ".." + txt.substring(x, txt.length);
                return;
            }
        }
    }
    t.textContent = "";
}
// zoom
function zoom_reset(e) {
    if (e.tagName == "rect") {
        e.attributes.x.value = format_percent(100 * parseInt(e.attributes["fg:x"].value) / total_samples);
        e.attributes.width.value = format_percent(100 * parseInt(e.attributes["fg:w"].value) / total_samples);
    }
    if (e.childNodes == undefined) return;
    for(var i = 0, c = e.childNodes; i < c.length; i++) {
        zoom_reset(c[i]);
    }
}
function zoom_child(e, x, zoomed_width_samples) {
    if (e.tagName == "text") {
        var parent_x = parseFloat(find_child(e.parentNode, "rect[x]").attributes.x.value);
        e.attributes.x.value = format_percent(parent_x + (100 * 3 / frames.attributes.width.value));
    } else if (e.tagName == "rect") {
        e.attributes.x.value = format_percent(100 * (parseInt(e.attributes["fg:x"].value) - x) / zoomed_width_samples);
        e.attributes.width.value = format_percent(100 * parseInt(e.attributes["fg:w"].value) / zoomed_width_samples);
    }
    if (e.childNodes == undefined) return;
    for(var i = 0, c = e.childNodes; i < c.length; i++) {
        zoom_child(c[i], x, zoomed_width_samples);
    }
}
function zoom_parent(e) {
    if (e.attributes) {
        if (e.attributes.x != undefined) {
            e.attributes.x.value = "0.0%";
        }
        if (e.attributes.width != undefined) {
            e.attributes.width.value = "100.0%";
        }
    }
    if (e.childNodes == undefined) return;
    for(var i = 0, c = e.childNodes; i < c.length; i++) {
        zoom_parent(c[i]);
    }
}
function zoom(node) {
    var attr = find_child(node, "rect").attributes;
    var width = parseInt(attr["fg:w"].value);
    var xmin = parseInt(attr["fg:x"].value);
    var xmax = xmin + width;
    var ymin = parseFloat(attr.y.value);
    unzoombtn.classList.remove("hide");
    var el = frames.children;
    for (var i = 0; i < el.length; i++) {
        var e = el[i];
        var a = find_child(e, "rect").attributes;
        var ex = parseInt(a["fg:x"].value);
        var ew = parseInt(a["fg:w"].value);
        // Is it an ancestor
        if (!inverted) {
            var upstack = parseFloat(a.y.value) > ymin;
        } else {
            var upstack = parseFloat(a.y.value) < ymin;
        }
        if (upstack) {
            // Direct ancestor
            if (ex <= xmin && (ex+ew) >= xmax) {
                e.classList.add("parent");
                zoom_parent(e);
                update_text(e);
            }
            // not in current path
            else
                e.classList.add("hide");
        }
        // Children maybe
        else {
            // no common path
            if (ex < xmin || ex >= xmax) {
                e.classList.add("hide");
            }
            else {
                zoom_child(e, xmin, width);
                update_text(e);
            }
        }
    }
}
function unzoom() {
    unzoombtn.classList.add("hide");
    var el = frames.children;
    for(var i = 0; i < el.length; i++) {
        el[i].classList.remove("parent");
        el[i].classList.remove("hide");
        zoom_reset(el[i]);
        update_text(el[i]);
    }
}
// search
function reset_search() {
    var el = document.querySelectorAll("#frames rect");
    for (var i = 0; i < el.length; i++) {
        orig_load(el[i], "fill")
    }
    var params = get_params();
    delete params.s;
    history.replaceState(null, null, parse_params(params));
}
function search_prompt() {
    if (!searching) {
        var term = prompt("Enter a search term (regexp " +
            "allowed, eg: ^ext4_)", "");
        if (term != null) {
            search(term)
        }
    } else {
        reset_search();
        searching = 0;
        searchbtn.classList.remove("show");
        searchbtn.firstChild.nodeValue = "Search"
        matchedtxt.classList.add("hide");
        matchedtxt.firstChild.nodeValue = ""
    }
}
function search(term) {
    var re = new RegExp(term);
    var el = frames.children;
    var matches = new Object();
    var maxwidth = 0;
    for (var i = 0; i < el.length; i++) {
        var e = el[i];
        // Skip over frames which are either not visible, or below the zoomed-to frame
        if (e.classList.contains("hide") || e.classList.contains("parent")) {
            continue;
        }
        var func = g_to_func(e);
        var rect = find_child(e, "rect");
        if (func == null || rect == null)
            continue;
        // Save max width. Only works as we have a root frame
        var w = parseInt(rect.attributes["fg:w"].value);
        if (w > maxwidth)
            maxwidth = w;
        if (func.match(re)) {
            // highlight
            var x = parseInt(rect.attributes["fg:x"].value);
            orig_save(rect, "fill");
            rect.attributes.fill.value = searchcolor;
            // remember matches
            if (matches[x] == undefined) {
                matches[x] = w;
            } else {
                if (w > matches[x]) {
                    // overwrite with parent
                    matches[x] = w;
                }
            }
            searching = 1;
        }
    }
    if (!searching)
        return;
    var params = get_params();
    params.s = term;
    history.replaceState(null, null, parse_params(params));

    searchbtn.classList.add("show");
    searchbtn.firstChild.nodeValue = "Reset Search";
    // calculate percent matched, excluding vertical overlap
    var count = 0;
    var lastx = -1;
    var lastw = 0;
    var keys = Array();
    for (k in matches) {
        if (matches.hasOwnProperty(k))
            keys.push(k);
    }
    // sort the matched frames by their x location
    // ascending, then width descending
    keys.sort(function(a, b){
        return a - b;
    });
    // Step through frames saving only the biggest bottom-up frames
    // thanks to the sort order. This relies on the tree property
    // where children are always smaller than their parents.
    for (var k in keys) {
        var x = parseInt(keys[k]);
        var w = matches[keys[k]];
        if (x >= lastx + lastw) {
            count += w;
            lastx = x;
            lastw = w;
        }
    }
    // display matched percent
    matchedtxt.classList.remove("hide");
    var pct = 100 * count / maxwidth;
    if (pct != 100) pct = pct.toFixed(1);
    matchedtxt.firstChild.nodeValue = "Matched: " + pct + "%";
}
function format_percent(n) {
    return n.toFixed(4) + "%";
}
]]></script><rect x="0" y="0" width="100%" height="810" fill="url(#background)"/><text id="title" x="50.0000%" y="24.00">py-spy record -o profile.svg -- gsof --host 10.54.218.152 --code CCSN --limit 20</text><text id="details" x="10" y="40.00"> </text><text id="unzoom" class="hide" x="10" y="24.00">Reset Zoom</text><text id="search" x="1090" y="24.00">Search</text><text id="matched" x="1090" y="799.00"> </text><svg id="frames" x="10" width="1180" total_samples="13"><g><title>compile (sre_compile.py:764) (1 samples, 7.69%)</title><rect x="0.0000%" y="500" width="7.6923%" height="15" fill="rgb(227,0,7)" fg:x="0" fg:w="1"/><text x="0.2500%" y="510.50">compile (sr..</text></g><g><title>parse (sre_parse.py:950) (1 samples, 7.69%)</title><rect x="0.0000%" y="516" width="7.6923%" height="15" fill="rgb(217,0,24)" fg:x="0" fg:w="1"/><text x="0.2500%" y="526.50">parse (sre_..</text></g><g><title>_parse_sub (sre_parse.py:443) (1 samples, 7.69%)</title><rect x="0.0000%" y="532" width="7.6923%" height="15" fill="rgb(221,193,54)" fg:x="0" fg:w="1"/><text x="0.2500%" y="542.50">_parse_sub ..</text></g><g><title>_parse (sre_parse.py:837) (1 samples, 7.69%)</title><rect x="0.0000%" y="548" width="7.6923%" height="15" fill="rgb(248,212,6)" fg:x="0" fg:w="1"/><text x="0.2500%" y="558.50">_parse (sre..</text></g><g><title>_parse_sub (sre_parse.py:443) (1 samples, 7.69%)</title><rect x="0.0000%" y="564" width="7.6923%" height="15" fill="rgb(208,68,35)" fg:x="0" fg:w="1"/><text x="0.2500%" y="574.50">_parse_sub ..</text></g><g><title>_parse (sre_parse.py:837) (1 samples, 7.69%)</title><rect x="0.0000%" y="580" width="7.6923%" height="15" fill="rgb(232,128,0)" fg:x="0" fg:w="1"/><text x="0.2500%" y="590.50">_parse (sre..</text></g><g><title>_parse_sub (sre_parse.py:443) (1 samples, 7.69%)</title><rect x="0.0000%" y="596" width="7.6923%" height="15" fill="rgb(207,160,47)" fg:x="0" fg:w="1"/><text x="0.2500%" y="606.50">_parse_sub ..</text></g><g><title>_parse (sre_parse.py:837) (1 samples, 7.69%)</title><rect x="0.0000%" y="612" width="7.6923%" height="15" fill="rgb(228,23,34)" fg:x="0" fg:w="1"/><text x="0.2500%" y="622.50">_parse (sre..</text></g><g><title>_parse_sub (sre_parse.py:443) (1 samples, 7.69%)</title><rect x="0.0000%" y="628" width="7.6923%" height="15" fill="rgb(218,30,26)" fg:x="0" fg:w="1"/><text x="0.2500%" y="638.50">_parse_sub ..</text></g><g><title>_parse (sre_parse.py:837) (1 samples, 7.69%)</title><rect x="0.0000%" y="644" width="7.6923%" height="15" fill="rgb(220,122,19)" fg:x="0" fg:w="1"/><text x="0.2500%" y="654.50">_parse (sre..</text></g><g><title>_parse_sub (sre_parse.py:443) (1 samples, 7.69%)</title><rect x="0.0000%" y="660" width="7.6923%" height="15" fill="rgb(250,228,42)" fg:x="0" fg:w="1"/><text x="0.2500%" y="670.50">_parse_sub ..</text></g><g><title>_parse (sre_parse.py:837) (1 samples, 7.69%)</title><rect x="0.0000%" y="676" width="7.6923%" height="15" fill="rgb(240,193,28)" fg:x="0" fg:w="1"/><text x="0.2500%" y="686.50">_parse (sre..</text></g><g><title>_parse_sub (sre_parse.py:443) (1 samples, 7.69%)</title><rect x="0.0000%" y="692" width="7.6923%" height="15" fill="rgb(216,20,37)" fg:x="0" fg:w="1"/><text x="0.2500%" y="702.50">_parse_sub ..</text></g><g><title>_parse (sre_parse.py:855) (1 samples, 7.69%)</title><rect x="0.0000%" y="708" width="7.6923%" height="15" fill="rgb(206,188,39)" fg:x="0" fg:w="1"/><text x="0.2500%" y="718.50">_parse (sre..</text></g><g><title>_compile (sre_compile.py:148) (1 samples, 7.69%)</title><rect x="7.6923%" y="548" width="7.6923%" height="15" fill="rgb(217,207,13)" fg:x="1" fg:w="1"/><text x="7.9423%" y="558.50">_compile (s..</text></g><g><title>_compile (sre_compile.py:120) (1 samples, 7.69%)</title><rect x="7.6923%" y="564" width="7.6923%" height="15" fill="rgb(231,73,38)" fg:x="1" fg:w="1"/><text x="7.9423%" y="574.50">_compile (s..</text></g><g><title>_optimize_charset (sre_compile.py:302) (1 samples, 7.69%)</title><rect x="7.6923%" y="580" width="7.6923%" height="15" fill="rgb(225,20,46)" fg:x="1" fg:w="1"/><text x="7.9423%" y="590.50">_optimize_c..</text></g><g><title>_compile (sre_compile.py:148) (1 samples, 7.69%)</title><rect x="15.3846%" y="564" width="7.6923%" height="15" fill="rgb(210,31,41)" fg:x="2" fg:w="1"/><text x="15.6346%" y="574.50">_compile (s..</text></g><g><title>_compile (sre_compile.py:120) (1 samples, 7.69%)</title><rect x="15.3846%" y="580" width="7.6923%" height="15" fill="rgb(221,200,47)" fg:x="2" fg:w="1"/><text x="15.6346%" y="590.50">_compile (s..</text></g><g><title>_optimize_charset (sre_compile.py:300) (1 samples, 7.69%)</title><rect x="15.3846%" y="596" width="7.6923%" height="15" fill="rgb(226,26,5)" fg:x="2" fg:w="1"/><text x="15.6346%" y="606.50">_optimize_c..</text></g><g><title>_compile (sre_compile.py:156) (1 samples, 7.69%)</title><rect x="23.0769%" y="564" width="7.6923%" height="15" fill="rgb(249,33,26)" fg:x="3" fg:w="1"/><text x="23.3269%" y="574.50">_compile (s..</text></g><g><title>_compile (sre_compile.py:209) (1 samples, 7.69%)</title><rect x="23.0769%" y="580" width="7.6923%" height="15" fill="rgb(235,183,28)" fg:x="3" fg:w="1"/><text x="23.3269%" y="590.50">_compile (s..</text></g><g><title>_compile (sre_compile.py:120) (1 samples, 7.69%)</title><rect x="23.0769%" y="596" width="7.6923%" height="15" fill="rgb(221,5,38)" fg:x="3" fg:w="1"/><text x="23.3269%" y="606.50">_compile (s..</text></g><g><title>_optimize_charset (sre_compile.py:302) (1 samples, 7.69%)</title><rect x="23.0769%" y="612" width="7.6923%" height="15" fill="rgb(247,18,42)" fg:x="3" fg:w="1"/><text x="23.3269%" y="622.50">_optimize_c..</text></g><g><title>_optimize_charset (sre_compile.py:300) (1 samples, 7.69%)</title><rect x="30.7692%" y="596" width="7.6923%" height="15" fill="rgb(241,131,45)" fg:x="4" fg:w="1"/><text x="31.0192%" y="606.50">_optimize_c..</text></g><g><title>_compile (sre_compile.py:156) (4 samples, 30.77%)</title><rect x="15.3846%" y="548" width="30.7692%" height="15" fill="rgb(249,31,29)" fg:x="2" fg:w="4"/><text x="15.6346%" y="558.50">_compile (sre_compile.py:156)</text></g><g><title>_compile (sre_compile.py:209) (2 samples, 15.38%)</title><rect x="30.7692%" y="564" width="15.3846%" height="15" fill="rgb(225,111,53)" fg:x="4" fg:w="2"/><text x="31.0192%" y="574.50">_compile (sre_compile.py..</text></g><g><title>_compile (sre_compile.py:120) (2 samples, 15.38%)</title><rect x="30.7692%" y="580" width="15.3846%" height="15" fill="rgb(238,160,17)" fg:x="4" fg:w="2"/><text x="31.0192%" y="590.50">_compile (sre_compile.py..</text></g><g><title>_optimize_charset (sre_compile.py:397) (1 samples, 7.69%)</title><rect x="38.4615%" y="596" width="7.6923%" height="15" fill="rgb(214,148,48)" fg:x="5" fg:w="1"/><text x="38.7115%" y="606.50">_optimize_c..</text></g><g><title>_find_and_load_unlocked (&lt;frozen importlib._bootstrap&gt;:1006) (7 samples, 53.85%)</title><rect x="0.0000%" y="100" width="53.8462%" height="15" fill="rgb(232,36,49)" fg:x="0" fg:w="7"/><text x="0.2500%" y="110.50">_find_and_load_unlocked (&lt;frozen importlib._bootstrap&gt;:1006)</text></g><g><title>_load_unlocked (&lt;frozen importlib._bootstrap&gt;:688) (7 samples, 53.85%)</title><rect x="0.0000%" y="116" width="53.8462%" height="15" fill="rgb(209,103,24)" fg:x="0" fg:w="7"/><text x="0.2500%" y="126.50">_load_unlocked (&lt;frozen importlib._bootstrap&gt;:688)</text></g><g><title>exec_module (&lt;frozen importlib._bootstrap_external&gt;:883) (7 samples, 53.85%)</title><rect x="0.0000%" y="132" width="53.8462%" height="15" fill="rgb(229,88,8)" fg:x="0" fg:w="7"/><text x="0.2500%" y="142.50">exec_module (&lt;frozen importlib._bootstrap_external&gt;:883)</text></g><g><title>_call_with_frames_removed (&lt;frozen importlib._bootstrap&gt;:241) (7 samples, 53.85%)</title><rect x="0.0000%" y="148" width="53.8462%" height="15" fill="rgb(213,181,19)" fg:x="0" fg:w="7"/><text x="0.2500%" y="158.50">_call_with_frames_removed (&lt;frozen importlib._bootstrap&gt;:241)</text></g><g><title>&lt;module&gt; (gsof.py:9) (7 samples, 53.85%)</title><rect x="0.0000%" y="164" width="53.8462%" height="15" fill="rgb(254,191,54)" fg:x="0" fg:w="7"/><text x="0.2500%" y="174.50">&lt;module&gt; (gsof.py:9)</text></g><g><title>_find_and_load (&lt;frozen importlib._bootstrap&gt;:1027) (7 samples, 53.85%)</title><rect x="0.0000%" y="180" width="53.8462%" height="15" fill="rgb(241,83,37)" fg:x="0" fg:w="7"/><text x="0.2500%" y="190.50">_find_and_load (&lt;frozen importlib._bootstrap&gt;:1027)</text></g><g><title>_find_and_load_unlocked (&lt;frozen importlib._bootstrap&gt;:1006) (7 samples, 53.85%)</title><rect x="0.0000%" y="196" width="53.8462%" height="15" fill="rgb(233,36,39)" fg:x="0" fg:w="7"/><text x="0.2500%" y="206.50">_find_and_load_unlocked (&lt;frozen importlib._bootstrap&gt;:1006)</text></g><g><title>_load_unlocked (&lt;frozen importlib._bootstrap&gt;:688) (7 samples, 53.85%)</title><rect x="0.0000%" y="212" width="53.8462%" height="15" fill="rgb(226,3,54)" fg:x="0" fg:w="7"/><text x="0.2500%" y="222.50">_load_unlocked (&lt;frozen importlib._bootstrap&gt;:688)</text></g><g><title>exec_module (&lt;frozen importlib._bootstrap_external&gt;:883) (7 samples, 53.85%)</title><rect x="0.0000%" y="228" width="53.8462%" height="15" fill="rgb(245,192,40)" fg:x="0" fg:w="7"/><text x="0.2500%" y="238.50">exec_module (&lt;frozen importlib._bootstrap_external&gt;:883)</text></g><g><title>_call_with_frames_removed (&lt;frozen importlib._bootstrap&gt;:241) (7 samples, 53.85%)</title><rect x="0.0000%" y="244" width="53.8462%" height="15" fill="rgb(238,167,29)" fg:x="0" fg:w="7"/><text x="0.2500%" y="254.50">_call_with_frames_removed (&lt;frozen importlib._bootstrap&gt;:241)</text></g><g><title>&lt;module&gt; (networktools/ip.py:4) (7 samples, 53.85%)</title><rect x="0.0000%" y="260" width="53.8462%" height="15" fill="rgb(232,182,51)" fg:x="0" fg:w="7"/><text x="0.2500%" y="270.50">&lt;module&gt; (networktools/ip.py:4)</text></g><g><title>_find_and_load (&lt;frozen importlib._bootstrap&gt;:1027) (7 samples, 53.85%)</title><rect x="0.0000%" y="276" width="53.8462%" height="15" fill="rgb(231,60,39)" fg:x="0" fg:w="7"/><text x="0.2500%" y="286.50">_find_and_load (&lt;frozen importlib._bootstrap&gt;:1027)</text></g><g><title>_find_and_load_unlocked (&lt;frozen importlib._bootstrap&gt;:1006) (7 samples, 53.85%)</title><rect x="0.0000%" y="292" width="53.8462%" height="15" fill="rgb(208,69,12)" fg:x="0" fg:w="7"/><text x="0.2500%" y="302.50">_find_and_load_unlocked (&lt;frozen importlib._bootstrap&gt;:1006)</text></g><g><title>_load_unlocked (&lt;frozen importlib._bootstrap&gt;:688) (7 samples, 53.85%)</title><rect x="0.0000%" y="308" width="53.8462%" height="15" fill="rgb(235,93,37)" fg:x="0" fg:w="7"/><text x="0.2500%" y="318.50">_load_unlocked (&lt;frozen importlib._bootstrap&gt;:688)</text></g><g><title>exec_module (&lt;frozen importlib._bootstrap_external&gt;:883) (7 samples, 53.85%)</title><rect x="0.0000%" y="324" width="53.8462%" height="15" fill="rgb(213,116,39)" fg:x="0" fg:w="7"/><text x="0.2500%" y="334.50">exec_module (&lt;frozen importlib._bootstrap_external&gt;:883)</text></g><g><title>_call_with_frames_removed (&lt;frozen importlib._bootstrap&gt;:241) (7 samples, 53.85%)</title><rect x="0.0000%" y="340" width="53.8462%" height="15" fill="rgb(222,207,29)" fg:x="0" fg:w="7"/><text x="0.2500%" y="350.50">_call_with_frames_removed (&lt;frozen importlib._bootstrap&gt;:241)</text></g><g><title>&lt;module&gt; (validators/__init__.py:24) (7 samples, 53.85%)</title><rect x="0.0000%" y="356" width="53.8462%" height="15" fill="rgb(206,96,30)" fg:x="0" fg:w="7"/><text x="0.2500%" y="366.50">&lt;module&gt; (validators/__init__.py:24)</text></g><g><title>_find_and_load (&lt;frozen importlib._bootstrap&gt;:1027) (7 samples, 53.85%)</title><rect x="0.0000%" y="372" width="53.8462%" height="15" fill="rgb(218,138,4)" fg:x="0" fg:w="7"/><text x="0.2500%" y="382.50">_find_and_load (&lt;frozen importlib._bootstrap&gt;:1027)</text></g><g><title>_find_and_load_unlocked (&lt;frozen importlib._bootstrap&gt;:1006) (7 samples, 53.85%)</title><rect x="0.0000%" y="388" width="53.8462%" height="15" fill="rgb(250,191,14)" fg:x="0" fg:w="7"/><text x="0.2500%" y="398.50">_find_and_load_unlocked (&lt;frozen importlib._bootstrap&gt;:1006)</text></g><g><title>_load_unlocked (&lt;frozen importlib._bootstrap&gt;:688) (7 samples, 53.85%)</title><rect x="0.0000%" y="404" width="53.8462%" height="15" fill="rgb(239,60,40)" fg:x="0" fg:w="7"/><text x="0.2500%" y="414.50">_load_unlocked (&lt;frozen importlib._bootstrap&gt;:688)</text></g><g><title>exec_module (&lt;frozen importlib._bootstrap_external&gt;:883) (7 samples, 53.85%)</title><rect x="0.0000%" y="420" width="53.8462%" height="15" fill="rgb(206,27,48)" fg:x="0" fg:w="7"/><text x="0.2500%" y="430.50">exec_module (&lt;frozen importlib._bootstrap_external&gt;:883)</text></g><g><title>_call_with_frames_removed (&lt;frozen importlib._bootstrap&gt;:241) (7 samples, 53.85%)</title><rect x="0.0000%" y="436" width="53.8462%" height="15" fill="rgb(225,35,8)" fg:x="0" fg:w="7"/><text x="0.2500%" y="446.50">_call_with_frames_removed (&lt;frozen importlib._bootstrap&gt;:241)</text></g><g><title>&lt;module&gt; (validators/url.py:8) (7 samples, 53.85%)</title><rect x="0.0000%" y="452" width="53.8462%" height="15" fill="rgb(250,213,24)" fg:x="0" fg:w="7"/><text x="0.2500%" y="462.50">&lt;module&gt; (validators/url.py:8)</text></g><g><title>compile (re.py:251) (7 samples, 53.85%)</title><rect x="0.0000%" y="468" width="53.8462%" height="15" fill="rgb(247,123,22)" fg:x="0" fg:w="7"/><text x="0.2500%" y="478.50">compile (re.py:251)</text></g><g><title>_compile (re.py:303) (7 samples, 53.85%)</title><rect x="0.0000%" y="484" width="53.8462%" height="15" fill="rgb(231,138,38)" fg:x="0" fg:w="7"/><text x="0.2500%" y="494.50">_compile (re.py:303)</text></g><g><title>compile (sre_compile.py:768) (6 samples, 46.15%)</title><rect x="7.6923%" y="500" width="46.1538%" height="15" fill="rgb(231,145,46)" fg:x="1" fg:w="6"/><text x="7.9423%" y="510.50">compile (sre_compile.py:768)</text></g><g><title>_code (sre_compile.py:607) (6 samples, 46.15%)</title><rect x="7.6923%" y="516" width="46.1538%" height="15" fill="rgb(251,118,11)" fg:x="1" fg:w="6"/><text x="7.9423%" y="526.50">_code (sre_compile.py:607)</text></g><g><title>_compile (sre_compile.py:209) (6 samples, 46.15%)</title><rect x="7.6923%" y="532" width="46.1538%" height="15" fill="rgb(217,147,25)" fg:x="1" fg:w="6"/><text x="7.9423%" y="542.50">_compile (sre_compile.py:209)</text></g><g><title>_compile (sre_compile.py:168) (1 samples, 7.69%)</title><rect x="46.1538%" y="548" width="7.6923%" height="15" fill="rgb(247,81,37)" fg:x="6" fg:w="1"/><text x="46.4038%" y="558.50">_compile (s..</text></g><g><title>_compile (sre_compile.py:209) (1 samples, 7.69%)</title><rect x="46.1538%" y="564" width="7.6923%" height="15" fill="rgb(209,12,38)" fg:x="6" fg:w="1"/><text x="46.4038%" y="574.50">_compile (s..</text></g><g><title>_compile (sre_compile.py:156) (1 samples, 7.69%)</title><rect x="46.1538%" y="580" width="7.6923%" height="15" fill="rgb(227,1,9)" fg:x="6" fg:w="1"/><text x="46.4038%" y="590.50">_compile (s..</text></g><g><title>_compile (sre_compile.py:168) (1 samples, 7.69%)</title><rect x="46.1538%" y="596" width="7.6923%" height="15" fill="rgb(248,47,43)" fg:x="6" fg:w="1"/><text x="46.4038%" y="606.50">_compile (s..</text></g><g><title>_compile (sre_compile.py:148) (1 samples, 7.69%)</title><rect x="46.1538%" y="612" width="7.6923%" height="15" fill="rgb(221,10,30)" fg:x="6" fg:w="1"/><text x="46.4038%" y="622.50">_compile (s..</text></g><g><title>_compile (sre_compile.py:120) (1 samples, 7.69%)</title><rect x="46.1538%" y="628" width="7.6923%" height="15" fill="rgb(210,229,1)" fg:x="6" fg:w="1"/><text x="46.4038%" y="638.50">_compile (s..</text></g><g><title>_optimize_charset (sre_compile.py:300) (1 samples, 7.69%)</title><rect x="46.1538%" y="644" width="7.6923%" height="15" fill="rgb(222,148,37)" fg:x="6" fg:w="1"/><text x="46.4038%" y="654.50">_optimize_c..</text></g><g><title>&lt;module&gt; (asyncio/base_events.py:43) (1 samples, 7.69%)</title><rect x="53.8462%" y="548" width="7.6923%" height="15" fill="rgb(234,67,33)" fg:x="7" fg:w="1"/><text x="54.0962%" y="558.50">&lt;module&gt; (a..</text></g><g><title>_handle_fromlist (&lt;frozen importlib._bootstrap&gt;:1078) (1 samples, 7.69%)</title><rect x="53.8462%" y="564" width="7.6923%" height="15" fill="rgb(247,98,35)" fg:x="7" fg:w="1"/><text x="54.0962%" y="574.50">_handle_fro..</text></g><g><title>_call_with_frames_removed (&lt;frozen importlib._bootstrap&gt;:241) (1 samples, 7.69%)</title><rect x="53.8462%" y="580" width="7.6923%" height="15" fill="rgb(247,138,52)" fg:x="7" fg:w="1"/><text x="54.0962%" y="590.50">_call_with_..</text></g><g><title>_find_and_load (&lt;frozen importlib._bootstrap&gt;:1027) (1 samples, 7.69%)</title><rect x="53.8462%" y="596" width="7.6923%" height="15" fill="rgb(213,79,30)" fg:x="7" fg:w="1"/><text x="54.0962%" y="606.50">_find_and_l..</text></g><g><title>_find_and_load_unlocked (&lt;frozen importlib._bootstrap&gt;:1006) (1 samples, 7.69%)</title><rect x="53.8462%" y="612" width="7.6923%" height="15" fill="rgb(246,177,23)" fg:x="7" fg:w="1"/><text x="54.0962%" y="622.50">_find_and_l..</text></g><g><title>_load_unlocked (&lt;frozen importlib._bootstrap&gt;:688) (1 samples, 7.69%)</title><rect x="53.8462%" y="628" width="7.6923%" height="15" fill="rgb(230,62,27)" fg:x="7" fg:w="1"/><text x="54.0962%" y="638.50">_load_unloc..</text></g><g><title>exec_module (&lt;frozen importlib._bootstrap_external&gt;:879) (1 samples, 7.69%)</title><rect x="53.8462%" y="644" width="7.6923%" height="15" fill="rgb(216,154,8)" fg:x="7" fg:w="1"/><text x="54.0962%" y="654.50">exec_module..</text></g><g><title>get_code (&lt;frozen importlib._bootstrap_external&gt;:1000) (1 samples, 7.69%)</title><rect x="53.8462%" y="660" width="7.6923%" height="15" fill="rgb(244,35,45)" fg:x="7" fg:w="1"/><text x="54.0962%" y="670.50">get_code (&lt;..</text></g><g><title>_validate_timestamp_pyc (&lt;frozen importlib._bootstrap_external&gt;:637) (1 samples, 7.69%)</title><rect x="53.8462%" y="676" width="7.6923%" height="15" fill="rgb(251,115,12)" fg:x="7" fg:w="1"/><text x="54.0962%" y="686.50">_validate_t..</text></g><g><title>_unpack_uint32 (&lt;frozen importlib._bootstrap_external&gt;:87) (1 samples, 7.69%)</title><rect x="53.8462%" y="692" width="7.6923%" height="15" fill="rgb(240,54,50)" fg:x="7" fg:w="1"/><text x="54.0962%" y="702.50">_unpack_uin..</text></g><g><title>&lt;module&gt; (gsof:5) (9 samples, 69.23%)</title><rect x="0.0000%" y="68" width="69.2308%" height="15" fill="rgb(233,84,52)" fg:x="0" fg:w="9"/><text x="0.2500%" y="78.50">&lt;module&gt; (gsof:5)</text></g><g><title>_find_and_load (&lt;frozen importlib._bootstrap&gt;:1027) (9 samples, 69.23%)</title><rect x="0.0000%" y="84" width="69.2308%" height="15" fill="rgb(207,117,47)" fg:x="0" fg:w="9"/><text x="0.2500%" y="94.50">_find_and_load (&lt;frozen importlib._bootstrap&gt;:1027)</text></g><g><title>_find_and_load_unlocked (&lt;frozen importlib._bootstrap&gt;:992) (2 samples, 15.38%)</title><rect x="53.8462%" y="100" width="15.3846%" height="15" fill="rgb(249,43,39)" fg:x="7" fg:w="2"/><text x="54.0962%" y="110.50">_find_and_load_unlocked ..</text></g><g><title>_call_with_frames_removed (&lt;frozen importlib._bootstrap&gt;:241) (2 samples, 15.38%)</title><rect x="53.8462%" y="116" width="15.3846%" height="15" fill="rgb(209,38,44)" fg:x="7" fg:w="2"/><text x="54.0962%" y="126.50">_call_with_frames_remove..</text></g><g><title>_find_and_load (&lt;frozen importlib._bootstrap&gt;:1027) (2 samples, 15.38%)</title><rect x="53.8462%" y="132" width="15.3846%" height="15" fill="rgb(236,212,23)" fg:x="7" fg:w="2"/><text x="54.0962%" y="142.50">_find_and_load (&lt;frozen ..</text></g><g><title>_find_and_load_unlocked (&lt;frozen importlib._bootstrap&gt;:992) (2 samples, 15.38%)</title><rect x="53.8462%" y="148" width="15.3846%" height="15" fill="rgb(242,79,21)" fg:x="7" fg:w="2"/><text x="54.0962%" y="158.50">_find_and_load_unlocked ..</text></g><g><title>_call_with_frames_removed (&lt;frozen importlib._bootstrap&gt;:241) (2 samples, 15.38%)</title><rect x="53.8462%" y="164" width="15.3846%" height="15" fill="rgb(211,96,35)" fg:x="7" fg:w="2"/><text x="54.0962%" y="174.50">_call_with_frames_remove..</text></g><g><title>_find_and_load (&lt;frozen importlib._bootstrap&gt;:1027) (2 samples, 15.38%)</title><rect x="53.8462%" y="180" width="15.3846%" height="15" fill="rgb(253,215,40)" fg:x="7" fg:w="2"/><text x="54.0962%" y="190.50">_find_and_load (&lt;frozen ..</text></g><g><title>_find_and_load_unlocked (&lt;frozen importlib._bootstrap&gt;:1006) (2 samples, 15.38%)</title><rect x="53.8462%" y="196" width="15.3846%" height="15" fill="rgb(211,81,21)" fg:x="7" fg:w="2"/><text x="54.0962%" y="206.50">_find_and_load_unlocked ..</text></g><g><title>_load_unlocked (&lt;frozen importlib._bootstrap&gt;:688) (2 samples, 15.38%)</title><rect x="53.8462%" y="212" width="15.3846%" height="15" fill="rgb(208,190,38)" fg:x="7" fg:w="2"/><text x="54.0962%" y="222.50">_load_unlocked (&lt;frozen ..</text></g><g><title>exec_module (&lt;frozen importlib._bootstrap_external&gt;:883) (2 samples, 15.38%)</title><rect x="53.8462%" y="228" width="15.3846%" height="15" fill="rgb(235,213,38)" fg:x="7" fg:w="2"/><text x="54.0962%" y="238.50">exec_module (&lt;frozen imp..</text></g><g><title>_call_with_frames_removed (&lt;frozen importlib._bootstrap&gt;:241) (2 samples, 15.38%)</title><rect x="53.8462%" y="244" width="15.3846%" height="15" fill="rgb(237,122,38)" fg:x="7" fg:w="2"/><text x="54.0962%" y="254.50">_call_with_frames_remove..</text></g><g><title>&lt;module&gt; (dataprotocols/__init__.py:1) (2 samples, 15.38%)</title><rect x="53.8462%" y="260" width="15.3846%" height="15" fill="rgb(244,218,35)" fg:x="7" fg:w="2"/><text x="54.0962%" y="270.50">&lt;module&gt; (dataprotocols/..</text></g><g><title>_find_and_load (&lt;frozen importlib._bootstrap&gt;:1027) (2 samples, 15.38%)</title><rect x="53.8462%" y="276" width="15.3846%" height="15" fill="rgb(240,68,47)" fg:x="7" fg:w="2"/><text x="54.0962%" y="286.50">_find_and_load (&lt;frozen ..</text></g><g><title>_find_and_load_unlocked (&lt;frozen importlib._bootstrap&gt;:1006) (2 samples, 15.38%)</title><rect x="53.8462%" y="292" width="15.3846%" height="15" fill="rgb(210,16,53)" fg:x="7" fg:w="2"/><text x="54.0962%" y="302.50">_find_and_load_unlocked ..</text></g><g><title>_load_unlocked (&lt;frozen importlib._bootstrap&gt;:688) (2 samples, 15.38%)</title><rect x="53.8462%" y="308" width="15.3846%" height="15" fill="rgb(235,124,12)" fg:x="7" fg:w="2"/><text x="54.0962%" y="318.50">_load_unlocked (&lt;frozen ..</text></g><g><title>exec_module (&lt;frozen importlib._bootstrap_external&gt;:883) (2 samples, 15.38%)</title><rect x="53.8462%" y="324" width="15.3846%" height="15" fill="rgb(224,169,11)" fg:x="7" fg:w="2"/><text x="54.0962%" y="334.50">exec_module (&lt;frozen imp..</text></g><g><title>_call_with_frames_removed (&lt;frozen importlib._bootstrap&gt;:241) (2 samples, 15.38%)</title><rect x="53.8462%" y="340" width="15.3846%" height="15" fill="rgb(250,166,2)" fg:x="7" fg:w="2"/><text x="54.0962%" y="350.50">_call_with_frames_remove..</text></g><g><title>&lt;module&gt; (protocol.py:2) (2 samples, 15.38%)</title><rect x="53.8462%" y="356" width="15.3846%" height="15" fill="rgb(242,216,29)" fg:x="7" fg:w="2"/><text x="54.0962%" y="366.50">&lt;module&gt; (protocol.py:2)</text></g><g><title>_find_and_load (&lt;frozen importlib._bootstrap&gt;:1027) (2 samples, 15.38%)</title><rect x="53.8462%" y="372" width="15.3846%" height="15" fill="rgb(230,116,27)" fg:x="7" fg:w="2"/><text x="54.0962%" y="382.50">_find_and_load (&lt;frozen ..</text></g><g><title>_find_and_load_unlocked (&lt;frozen importlib._bootstrap&gt;:1006) (2 samples, 15.38%)</title><rect x="53.8462%" y="388" width="15.3846%" height="15" fill="rgb(228,99,48)" fg:x="7" fg:w="2"/><text x="54.0962%" y="398.50">_find_and_load_unlocked ..</text></g><g><title>_load_unlocked (&lt;frozen importlib._bootstrap&gt;:688) (2 samples, 15.38%)</title><rect x="53.8462%" y="404" width="15.3846%" height="15" fill="rgb(253,11,6)" fg:x="7" fg:w="2"/><text x="54.0962%" y="414.50">_load_unlocked (&lt;frozen ..</text></g><g><title>exec_module (&lt;frozen importlib._bootstrap_external&gt;:883) (2 samples, 15.38%)</title><rect x="53.8462%" y="420" width="15.3846%" height="15" fill="rgb(247,143,39)" fg:x="7" fg:w="2"/><text x="54.0962%" y="430.50">exec_module (&lt;frozen imp..</text></g><g><title>_call_with_frames_removed (&lt;frozen importlib._bootstrap&gt;:241) (2 samples, 15.38%)</title><rect x="53.8462%" y="436" width="15.3846%" height="15" fill="rgb(236,97,10)" fg:x="7" fg:w="2"/><text x="54.0962%" y="446.50">_call_with_frames_remove..</text></g><g><title>&lt;module&gt; (asyncio/__init__.py:8) (2 samples, 15.38%)</title><rect x="53.8462%" y="452" width="15.3846%" height="15" fill="rgb(233,208,19)" fg:x="7" fg:w="2"/><text x="54.0962%" y="462.50">&lt;module&gt; (asyncio/__init..</text></g><g><title>_find_and_load (&lt;frozen importlib._bootstrap&gt;:1027) (2 samples, 15.38%)</title><rect x="53.8462%" y="468" width="15.3846%" height="15" fill="rgb(216,164,2)" fg:x="7" fg:w="2"/><text x="54.0962%" y="478.50">_find_and_load (&lt;frozen ..</text></g><g><title>_find_and_load_unlocked (&lt;frozen importlib._bootstrap&gt;:1006) (2 samples, 15.38%)</title><rect x="53.8462%" y="484" width="15.3846%" height="15" fill="rgb(220,129,5)" fg:x="7" fg:w="2"/><text x="54.0962%" y="494.50">_find_and_load_unlocked ..</text></g><g><title>_load_unlocked (&lt;frozen importlib._bootstrap&gt;:688) (2 samples, 15.38%)</title><rect x="53.8462%" y="500" width="15.3846%" height="15" fill="rgb(242,17,10)" fg:x="7" fg:w="2"/><text x="54.0962%" y="510.50">_load_unlocked (&lt;frozen ..</text></g><g><title>exec_module (&lt;frozen importlib._bootstrap_external&gt;:883) (2 samples, 15.38%)</title><rect x="53.8462%" y="516" width="15.3846%" height="15" fill="rgb(242,107,0)" fg:x="7" fg:w="2"/><text x="54.0962%" y="526.50">exec_module (&lt;frozen imp..</text></g><g><title>_call_with_frames_removed (&lt;frozen importlib._bootstrap&gt;:241) (2 samples, 15.38%)</title><rect x="53.8462%" y="532" width="15.3846%" height="15" fill="rgb(251,28,31)" fg:x="7" fg:w="2"/><text x="54.0962%" y="542.50">_call_with_frames_remove..</text></g><g><title>&lt;module&gt; (asyncio/base_events.py:45) (1 samples, 7.69%)</title><rect x="61.5385%" y="548" width="7.6923%" height="15" fill="rgb(233,223,10)" fg:x="8" fg:w="1"/><text x="61.7885%" y="558.50">&lt;module&gt; (a..</text></g><g><title>_handle_fromlist (&lt;frozen importlib._bootstrap&gt;:1078) (1 samples, 7.69%)</title><rect x="61.5385%" y="564" width="7.6923%" height="15" fill="rgb(215,21,27)" fg:x="8" fg:w="1"/><text x="61.7885%" y="574.50">_handle_fro..</text></g><g><title>_call_with_frames_removed (&lt;frozen importlib._bootstrap&gt;:241) (1 samples, 7.69%)</title><rect x="61.5385%" y="580" width="7.6923%" height="15" fill="rgb(232,23,21)" fg:x="8" fg:w="1"/><text x="61.7885%" y="590.50">_call_with_..</text></g><g><title>_find_and_load (&lt;frozen importlib._bootstrap&gt;:1027) (1 samples, 7.69%)</title><rect x="61.5385%" y="596" width="7.6923%" height="15" fill="rgb(244,5,23)" fg:x="8" fg:w="1"/><text x="61.7885%" y="606.50">_find_and_l..</text></g><g><title>_find_and_load_unlocked (&lt;frozen importlib._bootstrap&gt;:1006) (1 samples, 7.69%)</title><rect x="61.5385%" y="612" width="7.6923%" height="15" fill="rgb(226,81,46)" fg:x="8" fg:w="1"/><text x="61.7885%" y="622.50">_find_and_l..</text></g><g><title>_load_unlocked (&lt;frozen importlib._bootstrap&gt;:688) (1 samples, 7.69%)</title><rect x="61.5385%" y="628" width="7.6923%" height="15" fill="rgb(247,70,30)" fg:x="8" fg:w="1"/><text x="61.7885%" y="638.50">_load_unloc..</text></g><g><title>exec_module (&lt;frozen importlib._bootstrap_external&gt;:883) (1 samples, 7.69%)</title><rect x="61.5385%" y="644" width="7.6923%" height="15" fill="rgb(212,68,19)" fg:x="8" fg:w="1"/><text x="61.7885%" y="654.50">exec_module..</text></g><g><title>_call_with_frames_removed (&lt;frozen importlib._bootstrap&gt;:241) (1 samples, 7.69%)</title><rect x="61.5385%" y="660" width="7.6923%" height="15" fill="rgb(240,187,13)" fg:x="8" fg:w="1"/><text x="61.7885%" y="670.50">_call_with_..</text></g><g><title>&lt;module&gt; (asyncio/staggered.py:6) (1 samples, 7.69%)</title><rect x="61.5385%" y="676" width="7.6923%" height="15" fill="rgb(223,113,26)" fg:x="8" fg:w="1"/><text x="61.7885%" y="686.50">&lt;module&gt; (a..</text></g><g><title>_find_and_load (&lt;frozen importlib._bootstrap&gt;:1027) (1 samples, 7.69%)</title><rect x="61.5385%" y="692" width="7.6923%" height="15" fill="rgb(206,192,2)" fg:x="8" fg:w="1"/><text x="61.7885%" y="702.50">_find_and_l..</text></g><g><title>_find_and_load_unlocked (&lt;frozen importlib._bootstrap&gt;:1006) (1 samples, 7.69%)</title><rect x="61.5385%" y="708" width="7.6923%" height="15" fill="rgb(241,108,4)" fg:x="8" fg:w="1"/><text x="61.7885%" y="718.50">_find_and_l..</text></g><g><title>_load_unlocked (&lt;frozen importlib._bootstrap&gt;:688) (1 samples, 7.69%)</title><rect x="61.5385%" y="724" width="7.6923%" height="15" fill="rgb(247,173,49)" fg:x="8" fg:w="1"/><text x="61.7885%" y="734.50">_load_unloc..</text></g><g><title>exec_module (&lt;frozen importlib._bootstrap_external&gt;:879) (1 samples, 7.69%)</title><rect x="61.5385%" y="740" width="7.6923%" height="15" fill="rgb(224,114,35)" fg:x="8" fg:w="1"/><text x="61.7885%" y="750.50">exec_module..</text></g><g><title>get_code (&lt;frozen importlib._bootstrap_external&gt;:1015) (1 samples, 7.69%)</title><rect x="61.5385%" y="756" width="7.6923%" height="15" fill="rgb(245,159,27)" fg:x="8" fg:w="1"/><text x="61.7885%" y="766.50">get_code (&lt;..</text></g><g><title>_compile_bytecode (&lt;frozen importlib._bootstrap_external&gt;:672) (1 samples, 7.69%)</title><rect x="61.5385%" y="772" width="7.6923%" height="15" fill="rgb(245,172,44)" fg:x="8" fg:w="1"/><text x="61.7885%" y="782.50">_compile_by..</text></g><g><title>run_gsof (gsof.py:78) (1 samples, 7.69%)</title><rect x="69.2308%" y="148" width="7.6923%" height="15" fill="rgb(236,23,11)" fg:x="9" fg:w="1"/><text x="69.4808%" y="158.50">run_gsof (g..</text></g><g><title>get_event_loop (asyncio/events.py:653) (1 samples, 7.69%)</title><rect x="69.2308%" y="164" width="7.6923%" height="15" fill="rgb(205,117,38)" fg:x="9" fg:w="1"/><text x="69.4808%" y="174.50">get_event_l..</text></g><g><title>new_event_loop (asyncio/events.py:673) (1 samples, 7.69%)</title><rect x="69.2308%" y="180" width="7.6923%" height="15" fill="rgb(237,72,25)" fg:x="9" fg:w="1"/><text x="69.4808%" y="190.50">new_event_l..</text></g><g><title>__init__ (asyncio/unix_events.py:64) (1 samples, 7.69%)</title><rect x="69.2308%" y="196" width="7.6923%" height="15" fill="rgb(244,70,9)" fg:x="9" fg:w="1"/><text x="69.4808%" y="206.50">__init__ (a..</text></g><g><title>__init__ (asyncio/selector_events.py:56) (1 samples, 7.69%)</title><rect x="69.2308%" y="212" width="7.6923%" height="15" fill="rgb(217,125,39)" fg:x="9" fg:w="1"/><text x="69.4808%" y="222.50">__init__ (a..</text></g><g><title>_make_self_pipe (asyncio/selector_events.py:103) (1 samples, 7.69%)</title><rect x="69.2308%" y="228" width="7.6923%" height="15" fill="rgb(235,36,10)" fg:x="9" fg:w="1"/><text x="69.4808%" y="238.50">_make_self_..</text></g><g><title>socketpair (socket.py:607) (1 samples, 7.69%)</title><rect x="69.2308%" y="244" width="7.6923%" height="15" fill="rgb(251,123,47)" fg:x="9" fg:w="1"/><text x="69.4808%" y="254.50">socketpair ..</text></g><g><title>run_test (gsof.py:20) (1 samples, 7.69%)</title><rect x="76.9231%" y="228" width="7.6923%" height="15" fill="rgb(221,13,13)" fg:x="10" fg:w="1"/><text x="77.1731%" y="238.50">run_test (g..</text></g><g><title>print (rich/__init__.py:66) (1 samples, 7.69%)</title><rect x="76.9231%" y="244" width="7.6923%" height="15" fill="rgb(238,131,9)" fg:x="10" fg:w="1"/><text x="77.1731%" y="254.50">print (rich..</text></g><g><title>_find_and_load (&lt;frozen importlib._bootstrap&gt;:1027) (1 samples, 7.69%)</title><rect x="76.9231%" y="260" width="7.6923%" height="15" fill="rgb(211,50,8)" fg:x="10" fg:w="1"/><text x="77.1731%" y="270.50">_find_and_l..</text></g><g><title>_find_and_load_unlocked (&lt;frozen importlib._bootstrap&gt;:1006) (1 samples, 7.69%)</title><rect x="76.9231%" y="276" width="7.6923%" height="15" fill="rgb(245,182,24)" fg:x="10" fg:w="1"/><text x="77.1731%" y="286.50">_find_and_l..</text></g><g><title>_load_unlocked (&lt;frozen importlib._bootstrap&gt;:688) (1 samples, 7.69%)</title><rect x="76.9231%" y="292" width="7.6923%" height="15" fill="rgb(242,14,37)" fg:x="10" fg:w="1"/><text x="77.1731%" y="302.50">_load_unloc..</text></g><g><title>exec_module (&lt;frozen importlib._bootstrap_external&gt;:883) (1 samples, 7.69%)</title><rect x="76.9231%" y="308" width="7.6923%" height="15" fill="rgb(246,228,12)" fg:x="10" fg:w="1"/><text x="77.1731%" y="318.50">exec_module..</text></g><g><title>_call_with_frames_removed (&lt;frozen importlib._bootstrap&gt;:241) (1 samples, 7.69%)</title><rect x="76.9231%" y="324" width="7.6923%" height="15" fill="rgb(213,55,15)" fg:x="10" fg:w="1"/><text x="77.1731%" y="334.50">_call_with_..</text></g><g><title>&lt;module&gt; (rich/console.py:12) (1 samples, 7.69%)</title><rect x="76.9231%" y="340" width="7.6923%" height="15" fill="rgb(209,9,3)" fg:x="10" fg:w="1"/><text x="77.1731%" y="350.50">&lt;module&gt; (r..</text></g><g><title>_find_and_load (&lt;frozen importlib._bootstrap&gt;:1027) (1 samples, 7.69%)</title><rect x="76.9231%" y="356" width="7.6923%" height="15" fill="rgb(230,59,30)" fg:x="10" fg:w="1"/><text x="77.1731%" y="366.50">_find_and_l..</text></g><g><title>_find_and_load_unlocked (&lt;frozen importlib._bootstrap&gt;:1006) (1 samples, 7.69%)</title><rect x="76.9231%" y="372" width="7.6923%" height="15" fill="rgb(209,121,21)" fg:x="10" fg:w="1"/><text x="77.1731%" y="382.50">_find_and_l..</text></g><g><title>_load_unlocked (&lt;frozen importlib._bootstrap&gt;:688) (1 samples, 7.69%)</title><rect x="76.9231%" y="388" width="7.6923%" height="15" fill="rgb(220,109,13)" fg:x="10" fg:w="1"/><text x="77.1731%" y="398.50">_load_unloc..</text></g><g><title>exec_module (&lt;frozen importlib._bootstrap_external&gt;:883) (1 samples, 7.69%)</title><rect x="76.9231%" y="404" width="7.6923%" height="15" fill="rgb(232,18,1)" fg:x="10" fg:w="1"/><text x="77.1731%" y="414.50">exec_module..</text></g><g><title>_call_with_frames_removed (&lt;frozen importlib._bootstrap&gt;:241) (1 samples, 7.69%)</title><rect x="76.9231%" y="420" width="7.6923%" height="15" fill="rgb(215,41,42)" fg:x="10" fg:w="1"/><text x="77.1731%" y="430.50">_call_with_..</text></g><g><title>&lt;module&gt; (html/__init__.py:6) (1 samples, 7.69%)</title><rect x="76.9231%" y="436" width="7.6923%" height="15" fill="rgb(224,123,36)" fg:x="10" fg:w="1"/><text x="77.1731%" y="446.50">&lt;module&gt; (h..</text></g><g><title>_find_and_load (&lt;frozen importlib._bootstrap&gt;:1027) (1 samples, 7.69%)</title><rect x="76.9231%" y="452" width="7.6923%" height="15" fill="rgb(240,125,3)" fg:x="10" fg:w="1"/><text x="77.1731%" y="462.50">_find_and_l..</text></g><g><title>_find_and_load_unlocked (&lt;frozen importlib._bootstrap&gt;:1006) (1 samples, 7.69%)</title><rect x="76.9231%" y="468" width="7.6923%" height="15" fill="rgb(205,98,50)" fg:x="10" fg:w="1"/><text x="77.1731%" y="478.50">_find_and_l..</text></g><g><title>_load_unlocked (&lt;frozen importlib._bootstrap&gt;:688) (1 samples, 7.69%)</title><rect x="76.9231%" y="484" width="7.6923%" height="15" fill="rgb(205,185,37)" fg:x="10" fg:w="1"/><text x="77.1731%" y="494.50">_load_unloc..</text></g><g><title>exec_module (&lt;frozen importlib._bootstrap_external&gt;:879) (1 samples, 7.69%)</title><rect x="76.9231%" y="500" width="7.6923%" height="15" fill="rgb(238,207,15)" fg:x="10" fg:w="1"/><text x="77.1731%" y="510.50">exec_module..</text></g><g><title>get_code (&lt;frozen importlib._bootstrap_external&gt;:1015) (1 samples, 7.69%)</title><rect x="76.9231%" y="516" width="7.6923%" height="15" fill="rgb(213,199,42)" fg:x="10" fg:w="1"/><text x="77.1731%" y="526.50">get_code (&lt;..</text></g><g><title>_compile_bytecode (&lt;frozen importlib._bootstrap_external&gt;:672) (1 samples, 7.69%)</title><rect x="76.9231%" y="532" width="7.6923%" height="15" fill="rgb(235,201,11)" fg:x="10" fg:w="1"/><text x="77.1731%" y="542.50">_compile_by..</text></g><g><title>&lt;module&gt; (gsof:8) (3 samples, 23.08%)</title><rect x="69.2308%" y="68" width="23.0769%" height="15" fill="rgb(207,46,11)" fg:x="9" fg:w="3"/><text x="69.4808%" y="78.50">&lt;module&gt; (gsof:8)</text></g><g><title>__call__ (click/core.py:1130) (3 samples, 23.08%)</title><rect x="69.2308%" y="84" width="23.0769%" height="15" fill="rgb(241,35,35)" fg:x="9" fg:w="3"/><text x="69.4808%" y="94.50">__call__ (click/core.py:1130)</text></g><g><title>main (click/core.py:1055) (3 samples, 23.08%)</title><rect x="69.2308%" y="100" width="23.0769%" height="15" fill="rgb(243,32,47)" fg:x="9" fg:w="3"/><text x="69.4808%" y="110.50">main (click/core.py:1055)</text></g><g><title>invoke (click/core.py:1404) (3 samples, 23.08%)</title><rect x="69.2308%" y="116" width="23.0769%" height="15" fill="rgb(247,202,23)" fg:x="9" fg:w="3"/><text x="69.4808%" y="126.50">invoke (click/core.py:1404)</text></g><g><title>invoke (click/core.py:759) (3 samples, 23.08%)</title><rect x="69.2308%" y="132" width="23.0769%" height="15" fill="rgb(219,102,11)" fg:x="9" fg:w="3"/><text x="69.4808%" y="142.50">invoke (click/core.py:759)</text></g><g><title>run_gsof (gsof.py:81) (2 samples, 15.38%)</title><rect x="76.9231%" y="148" width="15.3846%" height="15" fill="rgb(243,110,44)" fg:x="10" fg:w="2"/><text x="77.1731%" y="158.50">run_gsof (gsof.py:81)</text></g><g><title>run_until_complete (asyncio/base_events.py:633) (2 samples, 15.38%)</title><rect x="76.9231%" y="164" width="15.3846%" height="15" fill="rgb(222,74,54)" fg:x="10" fg:w="2"/><text x="77.1731%" y="174.50">run_until_complete (asyn..</text></g><g><title>run_forever (asyncio/base_events.py:600) (2 samples, 15.38%)</title><rect x="76.9231%" y="180" width="15.3846%" height="15" fill="rgb(216,99,12)" fg:x="10" fg:w="2"/><text x="77.1731%" y="190.50">run_forever (asyncio/bas..</text></g><g><title>_run_once (asyncio/base_events.py:1896) (2 samples, 15.38%)</title><rect x="76.9231%" y="196" width="15.3846%" height="15" fill="rgb(226,22,26)" fg:x="10" fg:w="2"/><text x="77.1731%" y="206.50">_run_once (asyncio/base_..</text></g><g><title>_run (asyncio/events.py:80) (2 samples, 15.38%)</title><rect x="76.9231%" y="212" width="15.3846%" height="15" fill="rgb(217,163,10)" fg:x="10" fg:w="2"/><text x="77.1731%" y="222.50">_run (asyncio/events.py:..</text></g><g><title>run_test (gsof.py:27) (1 samples, 7.69%)</title><rect x="84.6154%" y="228" width="7.6923%" height="15" fill="rgb(213,25,53)" fg:x="11" fg:w="1"/><text x="84.8654%" y="238.50">run_test (g..</text></g><g><title>print (rich/__init__.py:69) (1 samples, 7.69%)</title><rect x="84.6154%" y="244" width="7.6923%" height="15" fill="rgb(252,105,26)" fg:x="11" fg:w="1"/><text x="84.8654%" y="254.50">print (rich..</text></g><g><title>print (rich/console.py:1726) (1 samples, 7.69%)</title><rect x="84.6154%" y="260" width="7.6923%" height="15" fill="rgb(220,39,43)" fg:x="11" fg:w="1"/><text x="84.8654%" y="270.50">print (rich..</text></g><g><title>_collect_renderables (rich/console.py:1590) (1 samples, 7.69%)</title><rect x="84.6154%" y="276" width="7.6923%" height="15" fill="rgb(229,68,48)" fg:x="11" fg:w="1"/><text x="84.8654%" y="286.50">_collect_re..</text></g><g><title>render_str (rich/console.py:1482) (1 samples, 7.69%)</title><rect x="84.6154%" y="292" width="7.6923%" height="15" fill="rgb(252,8,32)" fg:x="11" fg:w="1"/><text x="84.8654%" y="302.50">render_str ..</text></g><g><title>render (rich/markup.py:122) (1 samples, 7.69%)</title><rect x="84.6154%" y="308" width="7.6923%" height="15" fill="rgb(223,20,43)" fg:x="11" fg:w="1"/><text x="84.8654%" y="318.50">render (ric..</text></g><g><title>all (13 samples, 100%)</title><rect x="0.0000%" y="52" width="100.0000%" height="15" fill="rgb(229,81,49)" fg:x="0" fg:w="13"/><text x="0.2500%" y="62.50"></text></g><g><title>__repr__ (socket.py:259) (1 samples, 7.69%)</title><rect x="92.3077%" y="68" width="7.6923%" height="15" fill="rgb(236,28,36)" fg:x="12" fg:w="1"/><text x="92.5577%" y="78.50">__repr__ (s..</text></g></svg></svg>